INDEX VERSION 1.3+C:\Users\Foto\workspacecvjee\.metadata\.plugins\org.eclipse.wst.jsdt.core\indexes
48229212.index
3704123445.index
1556582486.index
2902896783.index
3119904627.index
2471563775.index
